module gitea.com/macaron/session

go 1.11

require (
	gitea.com/macaron/macaron v1.3.3-0.20190803174002-53e005ff4827
	github.com/Unknwon/com v0.0.0-20190321035513-0fed4efef755
	github.com/bradfitz/gomemcache v0.0.0-20190329173943-551aad21a668
	github.com/couchbase/gomemcached v0.0.0-20190515232915-c4b4ca0eb21d // indirect
	github.com/couchbase/goutils v0.0.0-20190315194238-f9d42b11473b // indirect
	github.com/couchbaselabs/go-couchbase v0.0.0-20190708161019-23e7ca2ce2b7
	github.com/cupcake/rdb v0.0.0-20161107195141-43ba34106c76 // indirect
	github.com/edsrzf/mmap-go v1.0.0 // indirect
	github.com/go-redis/redis v6.15.2+incompatible
	github.com/go-sql-driver/mysql v1.4.1
	github.com/lib/pq v1.2.0
	github.com/lunny/log v0.0.0-20160921050905-7887c61bf0de // indirect
	github.com/lunny/nodb v0.0.0-20160621015157-fc1ef06ad4af
	github.com/mattn/go-sqlite3 v1.11.0 // indirect
	github.com/pelletier/go-toml v1.4.0 // indirect
	github.com/pkg/errors v0.8.1 // indirect
	github.com/siddontang/go v0.0.0-20180604090527-bdc77568d726 // indirect
	github.com/siddontang/go-snappy v0.0.0-20140704025258-d8f7bb82a96d // indirect
	github.com/siddontang/ledisdb v0.0.0-20190202134119-8ceb77e66a92
	github.com/siddontang/rdb v0.0.0-20150307021120-fc89ed2e418d // indirect
	github.com/smartystreets/goconvey v0.0.0-20190731233626-505e41936337
	github.com/stretchr/testify v1.3.0 // indirect
	github.com/syndtr/goleveldb v1.0.0 // indirect
	golang.org/x/net v0.0.0-20190724013045-ca1201d0de80 // indirect
	google.golang.org/appengine v1.6.1 // indirect
	gopkg.in/ini.v1 v1.44.0
)
